%YAML 1.1
%TAG !u! tag:unity3d.com,2011:
--- !u!1001 &100100000
Prefab:
  m_ObjectHideFlags: 1
  serializedVersion: 2
  m_Modification:
    m_TransformParent: {fileID: 0}
    m_Modifications: []
    m_RemovedComponents: []
  m_ParentPrefab: {fileID: 0}
  m_RootGameObject: {fileID: 1981698760145132}
  m_IsPrefabParent: 1
--- !u!1 &1981698760145132
GameObject:
  m_ObjectHideFlags: 0
  m_PrefabParentObject: {fileID: 0}
  m_PrefabInternal: {fileID: 100100000}
  serializedVersion: 5
  m_Component:
  - component: {fileID: 4808037254884212}
  - component: {fileID: 33937765258962504}
  - component: {fileID: 23877846144817264}
  - component: {fileID: 114127323515696126}
  - component: {fileID: 61948501587589544}
  - component: {fileID: 114968766100677324}
  - component: {fileID: 82328594276300284}
  - component: {fileID: 50427343203726048}
  m_Layer: 0
  m_Name: Green Goo
  m_TagString: Enemy
  m_Icon: {fileID: 0}
  m_NavMeshLayer: 0
  m_StaticEditorFlags: 0
  m_IsActive: 1
--- !u!4 &4808037254884212
Transform:
  m_ObjectHideFlags: 1
  m_PrefabParentObject: {fileID: 0}
  m_PrefabInternal: {fileID: 100100000}
  m_GameObject: {fileID: 1981698760145132}
  m_LocalRotation: {x: 0, y: 0, z: 0, w: 1}
  m_LocalPosition: {x: 6.82, y: -2.72, z: 0}
  m_LocalScale: {x: 0.17425577, y: 0.17425577, z: 0.17425577}
  m_Children: []
  m_Father: {fileID: 0}
  m_RootOrder: 0
  m_LocalEulerAnglesHint: {x: 0, y: 0, z: 0}
--- !u!23 &23877846144817264
MeshRenderer:
  m_ObjectHideFlags: 1
  m_PrefabParentObject: {fileID: 0}
  m_PrefabInternal: {fileID: 100100000}
  m_GameObject: {fileID: 1981698760145132}
  m_Enabled: 1
  m_CastShadows: 1
  m_ReceiveShadows: 1
  m_MotionVectors: 1
  m_LightProbeUsage: 1
  m_ReflectionProbeUsage: 1
  m_Materials:
  - {fileID: 2100000, guid: f92ebb67bf0604c47abc84e565a7ad7b, type: 2}
  - {fileID: 2100000, guid: 050b102415445e94583f1affe9aa4bcb, type: 2}
  - {fileID: 2100000, guid: f92ebb67bf0604c47abc84e565a7ad7b, type: 2}
  - {fileID: 2100000, guid: 050b102415445e94583f1affe9aa4bcb, type: 2}
  - {fileID: 2100000, guid: f92ebb67bf0604c47abc84e565a7ad7b, type: 2}
  - {fileID: 2100000, guid: 050b102415445e94583f1affe9aa4bcb, type: 2}
  - {fileID: 2100000, guid: f92ebb67bf0604c47abc84e565a7ad7b, type: 2}
  - {fileID: 2100000, guid: 050b102415445e94583f1affe9aa4bcb, type: 2}
  - {fileID: 2100000, guid: f92ebb67bf0604c47abc84e565a7ad7b, type: 2}
  - {fileID: 2100000, guid: 050b102415445e94583f1affe9aa4bcb, type: 2}
  - {fileID: 2100000, guid: f92ebb67bf0604c47abc84e565a7ad7b, type: 2}
  - {fileID: 2100000, guid: 050b102415445e94583f1affe9aa4bcb, type: 2}
  - {fileID: 2100000, guid: f92ebb67bf0604c47abc84e565a7ad7b, type: 2}
  - {fileID: 2100000, guid: 050b102415445e94583f1affe9aa4bcb, type: 2}
  - {fileID: 2100000, guid: f92ebb67bf0604c47abc84e565a7ad7b, type: 2}
  m_StaticBatchInfo:
    firstSubMesh: 0
    subMeshCount: 0
  m_StaticBatchRoot: {fileID: 0}
  m_ProbeAnchor: {fileID: 0}
  m_LightProbeVolumeOverride: {fileID: 0}
  m_ScaleInLightmap: 1
  m_PreserveUVs: 0
  m_IgnoreNormalsForChartDetection: 0
  m_ImportantGI: 0
  m_SelectedEditorRenderState: 3
  m_MinimumChartSize: 4
  m_AutoUVMaxDistance: 0.5
  m_AutoUVMaxAngle: 89
  m_LightmapParameters: {fileID: 0}
  m_SortingLayerID: -1783731295
  m_SortingLayer: 3
  m_SortingOrder: 0
--- !u!33 &33937765258962504
MeshFilter:
  m_ObjectHideFlags: 1
  m_PrefabParentObject: {fileID: 0}
  m_PrefabInternal: {fileID: 100100000}
  m_GameObject: {fileID: 1981698760145132}
  m_Mesh: {fileID: 0}
--- !u!50 &50427343203726048
Rigidbody2D:
  serializedVersion: 4
  m_ObjectHideFlags: 1
  m_PrefabParentObject: {fileID: 0}
  m_PrefabInternal: {fileID: 100100000}
  m_GameObject: {fileID: 1981698760145132}
  m_BodyType: 0
  m_Simulated: 1
  m_UseFullKinematicContacts: 0
  m_UseAutoMass: 0
  m_Mass: 1
  m_LinearDrag: 0
  m_AngularDrag: 0.05
  m_GravityScale: 0
  m_Material: {fileID: 0}
  m_Interpolate: 1
  m_SleepingMode: 1
  m_CollisionDetection: 0
  m_Constraints: 4
--- !u!61 &61948501587589544
BoxCollider2D:
  m_ObjectHideFlags: 1
  m_PrefabParentObject: {fileID: 0}
  m_PrefabInternal: {fileID: 100100000}
  m_GameObject: {fileID: 1981698760145132}
  m_Enabled: 1
  m_Density: 1
  m_Material: {fileID: 0}
  m_IsTrigger: 1
  m_UsedByEffector: 0
  m_UsedByComposite: 0
  m_Offset: {x: -0.8231134, y: 4.820958}
  m_SpriteTilingProperty:
    border: {x: 0, y: 0, z: 0, w: 0}
    pivot: {x: 0, y: 0}
    oldSize: {x: 0, y: 0}
    newSize: {x: 0, y: 0}
    adaptiveTilingThreshold: 0
    drawMode: 0
    adaptiveTiling: 0
  m_AutoTiling: 0
  serializedVersion: 2
  m_Size: {x: 21.586817, y: 11.851014}
  m_EdgeRadius: 0
--- !u!82 &82328594276300284
AudioSource:
  m_ObjectHideFlags: 1
  m_PrefabParentObject: {fileID: 0}
  m_PrefabInternal: {fileID: 100100000}
  m_GameObject: {fileID: 1981698760145132}
  m_Enabled: 1
  serializedVersion: 4
  OutputAudioMixerGroup: {fileID: 0}
  m_audioClip: {fileID: 0}
  m_PlayOnAwake: 0
  m_Volume: 1
  m_Pitch: 1
  Loop: 0
  Mute: 0
  Spatialize: 0
  SpatializePostEffects: 0
  Priority: 128
  DopplerLevel: 1
  MinDistance: 1
  MaxDistance: 500
  Pan2D: 0
  rolloffMode: 0
  BypassEffects: 0
  BypassListenerEffects: 0
  BypassReverbZones: 0
  rolloffCustomCurve:
    serializedVersion: 2
    m_Curve:
    - serializedVersion: 2
      time: 0
      value: 1
      inSlope: 0
      outSlope: 0
      tangentMode: 0
    - serializedVersion: 2
      time: 1
      value: 0
      inSlope: 0
      outSlope: 0
      tangentMode: 0
    m_PreInfinity: 2
    m_PostInfinity: 2
    m_RotationOrder: 4
  panLevelCustomCurve:
    serializedVersion: 2
    m_Curve:
    - serializedVersion: 2
      time: 0
      value: 0
      inSlope: 0
      outSlope: 0
      tangentMode: 0
    m_PreInfinity: 2
    m_PostInfinity: 2
    m_RotationOrder: 0
  spreadCustomCurve:
    serializedVersion: 2
    m_Curve:
    - serializedVersion: 2
      time: 0
      value: 0
      inSlope: 0
      outSlope: 0
      tangentMode: 0
    m_PreInfinity: 2
    m_PostInfinity: 2
    m_RotationOrder: 4
  reverbZoneMixCustomCurve:
    serializedVersion: 2
    m_Curve:
    - serializedVersion: 2
      time: 0
      value: 1
      inSlope: 0
      outSlope: 0
      tangentMode: 0
    m_PreInfinity: 2
    m_PostInfinity: 2
    m_RotationOrder: 0
--- !u!114 &114127323515696126
MonoBehaviour:
  m_ObjectHideFlags: 1
  m_PrefabParentObject: {fileID: 0}
  m_PrefabInternal: {fileID: 100100000}
  m_GameObject: {fileID: 1981698760145132}
  m_Enabled: 1
  m_EditorHideFlags: 0
  m_Script: {fileID: 11500000, guid: d247ba06193faa74d9335f5481b2b56c, type: 3}
  m_Name: 
  m_EditorClassIdentifier: 
  skeletonDataAsset: {fileID: 11400000, guid: 7252dc3dd8353ea459fbb9b7313a3f3e, type: 2}
  initialSkinName: default
  initialFlipX: 0
  initialFlipY: 0
  separatorSlotNames: []
  zSpacing: 0
  useClipping: 1
  immutableTriangles: 0
  pmaVertexColors: 1
  clearStateOnDisable: 0
  tintBlack: 0
  singleSubmesh: 0
  addNormals: 0
  calculateTangents: 0
  logErrors: 0
  disableRenderingOnOverride: 1
  _animationName: Crawl
  loop: 1
  timeScale: 1
--- !u!114 &114968766100677324
MonoBehaviour:
  m_ObjectHideFlags: 1
  m_PrefabParentObject: {fileID: 0}
  m_PrefabInternal: {fileID: 100100000}
  m_GameObject: {fileID: 1981698760145132}
  m_Enabled: 1
  m_EditorHideFlags: 0
  m_Script: {fileID: 11500000, guid: b1fc5a1f5c4a5e041bcd22e61f6d1eb8, type: 3}
  m_Name: 
  m_EditorClassIdentifier: 
  enemySpawner: {fileID: 0}
  moveDuration: 1
  shotsDelay: 1.5
  idleDelay: 1.5
  bullet: {fileID: 114709960616700374, guid: 07081a2744759f44c9cf0d467454c5b1, type: 2}
  mySlot: {fileID: 0}
  shootClip: {fileID: 8300000, guid: 5883ddae85bc9da4a8d9cbf5caf2973f, type: 3}
  dieClip: {fileID: 8300000, guid: 3673bd3a241e53d4cbdd7b9f860f4177, type: 3}
  dying: 0
  idleAnimation: Idle
  walkAnimation: Crawl
  shotAnimation: Shot
  dieAnimation: Death
  eventShot: Shot
  boneGunName: WEAPON SHOOTPOINT
  eventShot2: 
  boneGun2Name: 
