%YAML 1.1
%TAG !u! tag:unity3d.com,2011:
--- !u!74 &7400000
AnimationClip:
  m_ObjectHideFlags: 0
  m_PrefabParentObject: {fileID: 0}
  m_PrefabInternal: {fileID: 0}
  m_Name: AlienBullet
  serializedVersion: 6
  m_Legacy: 0
  m_Compressed: 0
  m_UseHighQualityCurve: 1
  m_RotationCurves: []
  m_CompressedRotationCurves: []
  m_EulerCurves: []
  m_PositionCurves: []
  m_ScaleCurves: []
  m_FloatCurves: []
  m_PPtrCurves:
  - curve:
    - time: 0
      value: {fileID: 21300000, guid: c172fcc8453ac4c44804c1333601f448, type: 3}
    - time: 0.033333335
      value: {fileID: 21300000, guid: df73112142a4e4c43b8ebdf6a2333b81, type: 3}
    - time: 0.06666667
      value: {fileID: 21300000, guid: bcaf00f7c1f734547b509bbbece93f9e, type: 3}
    - time: 0.1
      value: {fileID: 21300000, guid: a95390070bbd1944c80152be378cd0ba, type: 3}
    - time: 0.13333334
      value: {fileID: 21300000, guid: f62e6226cf3bdc448bb3f04c7ad5b891, type: 3}
    - time: 0.16666667
      value: {fileID: 21300000, guid: e147eddb8252f8c47b19d11b67dc1552, type: 3}
    - time: 0.2
      value: {fileID: 21300000, guid: dcdb5dc608d667e45a95fdb49f05fddf, type: 3}
    - time: 0.23333333
      value: {fileID: 21300000, guid: 5a68a9e066b971c429db4508527c5dbd, type: 3}
    - time: 0.26666668
      value: {fileID: 21300000, guid: 72b955dc0129b724e83dbdd3a938d438, type: 3}
    - time: 0.3
      value: {fileID: 21300000, guid: 411ab5a555b4e8744b52f1a7d0783129, type: 3}
    - time: 0.33333334
      value: {fileID: 21300000, guid: 5dfdabb9fff3c5c409590b9ec76bb95e, type: 3}
    attribute: m_Sprite
    path: 
    classID: 212
    script: {fileID: 0}
  m_SampleRate: 30
  m_WrapMode: 0
  m_Bounds:
    m_Center: {x: 0, y: 0, z: 0}
    m_Extent: {x: 0, y: 0, z: 0}
  m_ClipBindingConstant:
    genericBindings:
    - serializedVersion: 2
      path: 0
      attribute: 0
      script: {fileID: 0}
      typeID: 212
      customType: 23
      isPPtrCurve: 1
    pptrCurveMapping:
    - {fileID: 21300000, guid: c172fcc8453ac4c44804c1333601f448, type: 3}
    - {fileID: 21300000, guid: df73112142a4e4c43b8ebdf6a2333b81, type: 3}
    - {fileID: 21300000, guid: bcaf00f7c1f734547b509bbbece93f9e, type: 3}
    - {fileID: 21300000, guid: a95390070bbd1944c80152be378cd0ba, type: 3}
    - {fileID: 21300000, guid: f62e6226cf3bdc448bb3f04c7ad5b891, type: 3}
    - {fileID: 21300000, guid: e147eddb8252f8c47b19d11b67dc1552, type: 3}
    - {fileID: 21300000, guid: dcdb5dc608d667e45a95fdb49f05fddf, type: 3}
    - {fileID: 21300000, guid: 5a68a9e066b971c429db4508527c5dbd, type: 3}
    - {fileID: 21300000, guid: 72b955dc0129b724e83dbdd3a938d438, type: 3}
    - {fileID: 21300000, guid: 411ab5a555b4e8744b52f1a7d0783129, type: 3}
    - {fileID: 21300000, guid: 5dfdabb9fff3c5c409590b9ec76bb95e, type: 3}
  m_AnimationClipSettings:
    serializedVersion: 2
    m_AdditiveReferencePoseClip: {fileID: 0}
    m_AdditiveReferencePoseTime: 0
    m_StartTime: 0
    m_StopTime: 0.36666667
    m_OrientationOffsetY: 0
    m_Level: 0
    m_CycleOffset: 0
    m_HasAdditiveReferencePose: 0
    m_LoopTime: 1
    m_LoopBlend: 0
    m_LoopBlendOrientation: 0
    m_LoopBlendPositionY: 0
    m_LoopBlendPositionXZ: 0
    m_KeepOriginalOrientation: 0
    m_KeepOriginalPositionY: 1
    m_KeepOriginalPositionXZ: 0
    m_HeightFromFeet: 0
    m_Mirror: 0
  m_EditorCurves: []
  m_EulerEditorCurves: []
  m_HasGenericRootTransform: 0
  m_HasMotionFloatCurves: 0
  m_GenerateMotionCurves: 0
  m_Events: []
