%YAML 1.1
%TAG !u! tag:unity3d.com,2011:
--- !u!74 &7400000
AnimationClip:
  m_ObjectHideFlags: 0
  m_PrefabParentObject: {fileID: 0}
  m_PrefabInternal: {fileID: 0}
  m_Name: HeroReload
  serializedVersion: 6
  m_Legacy: 0
  m_Compressed: 0
  m_UseHighQualityCurve: 1
  m_RotationCurves: []
  m_CompressedRotationCurves: []
  m_EulerCurves: []
  m_PositionCurves: []
  m_ScaleCurves: []
  m_FloatCurves: []
  m_PPtrCurves:
  - curve:
    - time: 0
      value: {fileID: 21300000, guid: b26619cd74cd8c345a5feb6c256aa377, type: 3}
    - time: 0.033333335
      value: {fileID: 21300000, guid: e9084cff5773f0740bf7af2902673c23, type: 3}
    - time: 0.06666667
      value: {fileID: 21300000, guid: c1bd2d194c5034f49aa56241780d6ee3, type: 3}
    - time: 0.1
      value: {fileID: 21300000, guid: 4db9c20f4c7ca794dbb06ded34744729, type: 3}
    - time: 0.13333334
      value: {fileID: 21300000, guid: 894f7fba7e356414fb815a0f9a5ce8fb, type: 3}
    - time: 0.16666667
      value: {fileID: 21300000, guid: 14b1f80209bd5fb4fb425481436f5213, type: 3}
    - time: 0.2
      value: {fileID: 21300000, guid: cbd066d002b8dc24cbfaaff5b5cf3473, type: 3}
    - time: 0.23333333
      value: {fileID: 21300000, guid: 4205025670eca0d4c80a4b9058236354, type: 3}
    - time: 0.26666668
      value: {fileID: 21300000, guid: 38fafd7dcf2029c49afc835e9e48c907, type: 3}
    - time: 0.3
      value: {fileID: 21300000, guid: 2da7f66a994ef9d4a8bd1d222079bbb6, type: 3}
    - time: 0.33333334
      value: {fileID: 21300000, guid: 2e7b36b2989aa38429df1e57b1800e15, type: 3}
    - time: 0.36666667
      value: {fileID: 21300000, guid: a2b12c039e7fa0040913fe97a3eb8f31, type: 3}
    - time: 0.4
      value: {fileID: 21300000, guid: fc51f488fe5e6324387d7cd8f0a3c7bc, type: 3}
    - time: 0.43333334
      value: {fileID: 21300000, guid: df7f2e148989d0c44b359f2167aa33fd, type: 3}
    - time: 0.46666667
      value: {fileID: 21300000, guid: 28e582d6fb7fb3c458304fb102c16c4c, type: 3}
    - time: 0.5
      value: {fileID: 21300000, guid: cec50d665759ef343b3329fa5c4e6e75, type: 3}
    - time: 0.53333336
      value: {fileID: 21300000, guid: a84c22cf68640d54f891c7396c12cfe1, type: 3}
    - time: 0.56666666
      value: {fileID: 21300000, guid: a09a3c0f888e9b746b54b7d1aa783657, type: 3}
    - time: 0.6
      value: {fileID: 21300000, guid: bd30c10370028d44aafa2fe226ab1935, type: 3}
    - time: 0.6333333
      value: {fileID: 21300000, guid: 7a9e6767cee58744c9aff54d9f4d531b, type: 3}
    - time: 0.6666667
      value: {fileID: 21300000, guid: bbf821fa5bf294b40b4ac32a18f116e4, type: 3}
    - time: 0.7
      value: {fileID: 21300000, guid: 7da7023cbd1550a478388a471cffa05a, type: 3}
    - time: 0.73333335
      value: {fileID: 21300000, guid: 5b7d036f205d45e4f986d3095d546644, type: 3}
    - time: 0.76666665
      value: {fileID: 21300000, guid: b0eaf5275fb16f046aa5cec0f5854dec, type: 3}
    - time: 0.8
      value: {fileID: 21300000, guid: f43d05916c89fc448839087d77a73235, type: 3}
    - time: 0.8333333
      value: {fileID: 21300000, guid: b0a3bd72f9af8934c81e9ddb19bc2c4c, type: 3}
    - time: 0.8666667
      value: {fileID: 21300000, guid: 4e6936e205e15e04d99ded0393a753e0, type: 3}
    - time: 0.9
      value: {fileID: 21300000, guid: 81f83ef2f7be4ed4e98f8cd28c9c1244, type: 3}
    - time: 0.93333334
      value: {fileID: 21300000, guid: 58c6e332b8a105544802c5421451e130, type: 3}
    - time: 0.96666664
      value: {fileID: 21300000, guid: fd9ea48c8b0c2b74186bcb0b9a5eef44, type: 3}
    - time: 1
      value: {fileID: 21300000, guid: 045d56ce11f1ae646bbe5d991ae34000, type: 3}
    - time: 1.0333333
      value: {fileID: 21300000, guid: 79ac19e7c46ba284fa1489a6611c3848, type: 3}
    - time: 1.0666667
      value: {fileID: 21300000, guid: 907452b0691a4654d813c4a25c23cb57, type: 3}
    - time: 1.1
      value: {fileID: 21300000, guid: 62ac46431aeb10c45aeb6fd1a9a058df, type: 3}
    - time: 1.1333333
      value: {fileID: 21300000, guid: ac33068b5e8cad140b5b06d932d8f7c0, type: 3}
    - time: 1.1666666
      value: {fileID: 21300000, guid: 5b4e2814cd86de040b5f3d205138ec4e, type: 3}
    - time: 1.2
      value: {fileID: 21300000, guid: 7fda473c681ca7545adb388a6b90c5c8, type: 3}
    - time: 1.2333333
      value: {fileID: 21300000, guid: bf24f7d25015dec488d995d4d02073a8, type: 3}
    - time: 1.2666667
      value: {fileID: 21300000, guid: 0abafb6c246fdab4093876b605e1826f, type: 3}
    - time: 1.3
      value: {fileID: 21300000, guid: 9d71851ed99dd514094f55b038723d07, type: 3}
    - time: 1.3333334
      value: {fileID: 21300000, guid: b5bc541c7d3c7f74785f3d8426258027, type: 3}
    - time: 1.3666667
      value: {fileID: 21300000, guid: 64f3a7b64a017444583e7fbc8b9709bc, type: 3}
    - time: 1.4
      value: {fileID: 21300000, guid: 3df2036a8aeb58e4280d0dd116b24fc9, type: 3}
    - time: 1.4333333
      value: {fileID: 21300000, guid: 20f920717493e4349a8d89b43fcea2ab, type: 3}
    - time: 1.4666667
      value: {fileID: 21300000, guid: b2228173c42bc404ca8169814a0e3292, type: 3}
    - time: 1.5
      value: {fileID: 21300000, guid: ced925c7de2d9314bae6b2f1448060a7, type: 3}
    - time: 1.5333333
      value: {fileID: 21300000, guid: 932f9f43c37177a49b652f69821159e6, type: 3}
    - time: 1.5666667
      value: {fileID: 21300000, guid: cee827d88e755d84c92a3404ebe31a3b, type: 3}
    - time: 1.6
      value: {fileID: 21300000, guid: e4f127f3a99f3504196e7cea13b96aa6, type: 3}
    - time: 1.6333333
      value: {fileID: 21300000, guid: 946023063c561a74baede5083f1aa1ac, type: 3}
    - time: 1.6666666
      value: {fileID: 21300000, guid: e6fe6511779d50148a1877b6aebc39fa, type: 3}
    - time: 1.7
      value: {fileID: 21300000, guid: 0bf8667a6f9f8d34e9186cb03220b09e, type: 3}
    - time: 1.7333333
      value: {fileID: 21300000, guid: 79428e67fbc3b6245b5449ace4ae221e, type: 3}
    - time: 1.7666667
      value: {fileID: 21300000, guid: 9f5ea7abf1d2e0248b7e1ef333de07b9, type: 3}
    - time: 1.8
      value: {fileID: 21300000, guid: 6e0a56f6a12229a49b286bc29a0a4521, type: 3}
    - time: 1.8333334
      value: {fileID: 21300000, guid: ae95ab7b5ba469c458d9edc550024701, type: 3}
    - time: 1.8666667
      value: {fileID: 21300000, guid: 0a7b0ea84705d4b4e9cc550077ba5dc0, type: 3}
    - time: 1.9
      value: {fileID: 21300000, guid: 56aaa4443fdfea44dab2ad539acb15aa, type: 3}
    - time: 1.9333333
      value: {fileID: 21300000, guid: fece98f31a2704b46949603bd1802aa6, type: 3}
    - time: 1.9666667
      value: {fileID: 21300000, guid: db9da2600328c164a8baab2e7cefe8fd, type: 3}
    - time: 2
      value: {fileID: 21300000, guid: 86e5948ff22a7c94cb3a52573e88d601, type: 3}
    - time: 2.0333333
      value: {fileID: 21300000, guid: 86648d1ebf898cb44bdd35df5783e768, type: 3}
    - time: 2.0666666
      value: {fileID: 21300000, guid: 0990c7beffca34141bd4d4e4c95ffa1f, type: 3}
    - time: 2.1
      value: {fileID: 21300000, guid: 5375a55f504059f40b5fd2ff8e8ab145, type: 3}
    - time: 2.1333334
      value: {fileID: 21300000, guid: b2d0cd0a5b805284faabdb9a1f97622c, type: 3}
    - time: 2.1666667
      value: {fileID: 21300000, guid: b3a0622419dc4414bb16eb82a22039fd, type: 3}
    - time: 2.2
      value: {fileID: 21300000, guid: dc09a397561e1d04fb2d91f596af4a7b, type: 3}
    - time: 2.2333333
      value: {fileID: 21300000, guid: a32b78547b5d28a48a8bd9211e8262e6, type: 3}
    - time: 2.2666667
      value: {fileID: 21300000, guid: 8c6d6264a41ac374bb7f758749dcd7a5, type: 3}
    - time: 2.3
      value: {fileID: 21300000, guid: aca6cff6167b226438ed9ed6832c51f8, type: 3}
    - time: 2.3333333
      value: {fileID: 21300000, guid: 66637c21d925b2b4f9025abe4f44a7f5, type: 3}
    - time: 2.3666666
      value: {fileID: 21300000, guid: 8b3ef10d8edc6e64ba4cf41b245cdde6, type: 3}
    attribute: m_Sprite
    path: 
    classID: 212
    script: {fileID: 0}
  m_SampleRate: 30
  m_WrapMode: 0
  m_Bounds:
    m_Center: {x: 0, y: 0, z: 0}
    m_Extent: {x: 0, y: 0, z: 0}
  m_ClipBindingConstant:
    genericBindings:
    - serializedVersion: 2
      path: 0
      attribute: 0
      script: {fileID: 0}
      typeID: 212
      customType: 23
      isPPtrCurve: 1
    pptrCurveMapping:
    - {fileID: 21300000, guid: b26619cd74cd8c345a5feb6c256aa377, type: 3}
    - {fileID: 21300000, guid: e9084cff5773f0740bf7af2902673c23, type: 3}
    - {fileID: 21300000, guid: c1bd2d194c5034f49aa56241780d6ee3, type: 3}
    - {fileID: 21300000, guid: 4db9c20f4c7ca794dbb06ded34744729, type: 3}
    - {fileID: 21300000, guid: 894f7fba7e356414fb815a0f9a5ce8fb, type: 3}
    - {fileID: 21300000, guid: 14b1f80209bd5fb4fb425481436f5213, type: 3}
    - {fileID: 21300000, guid: cbd066d002b8dc24cbfaaff5b5cf3473, type: 3}
    - {fileID: 21300000, guid: 4205025670eca0d4c80a4b9058236354, type: 3}
    - {fileID: 21300000, guid: 38fafd7dcf2029c49afc835e9e48c907, type: 3}
    - {fileID: 21300000, guid: 2da7f66a994ef9d4a8bd1d222079bbb6, type: 3}
    - {fileID: 21300000, guid: 2e7b36b2989aa38429df1e57b1800e15, type: 3}
    - {fileID: 21300000, guid: a2b12c039e7fa0040913fe97a3eb8f31, type: 3}
    - {fileID: 21300000, guid: fc51f488fe5e6324387d7cd8f0a3c7bc, type: 3}
    - {fileID: 21300000, guid: df7f2e148989d0c44b359f2167aa33fd, type: 3}
    - {fileID: 21300000, guid: 28e582d6fb7fb3c458304fb102c16c4c, type: 3}
    - {fileID: 21300000, guid: cec50d665759ef343b3329fa5c4e6e75, type: 3}
    - {fileID: 21300000, guid: a84c22cf68640d54f891c7396c12cfe1, type: 3}
    - {fileID: 21300000, guid: a09a3c0f888e9b746b54b7d1aa783657, type: 3}
    - {fileID: 21300000, guid: bd30c10370028d44aafa2fe226ab1935, type: 3}
    - {fileID: 21300000, guid: 7a9e6767cee58744c9aff54d9f4d531b, type: 3}
    - {fileID: 21300000, guid: bbf821fa5bf294b40b4ac32a18f116e4, type: 3}
    - {fileID: 21300000, guid: 7da7023cbd1550a478388a471cffa05a, type: 3}
    - {fileID: 21300000, guid: 5b7d036f205d45e4f986d3095d546644, type: 3}
    - {fileID: 21300000, guid: b0eaf5275fb16f046aa5cec0f5854dec, type: 3}
    - {fileID: 21300000, guid: f43d05916c89fc448839087d77a73235, type: 3}
    - {fileID: 21300000, guid: b0a3bd72f9af8934c81e9ddb19bc2c4c, type: 3}
    - {fileID: 21300000, guid: 4e6936e205e15e04d99ded0393a753e0, type: 3}
    - {fileID: 21300000, guid: 81f83ef2f7be4ed4e98f8cd28c9c1244, type: 3}
    - {fileID: 21300000, guid: 58c6e332b8a105544802c5421451e130, type: 3}
    - {fileID: 21300000, guid: fd9ea48c8b0c2b74186bcb0b9a5eef44, type: 3}
    - {fileID: 21300000, guid: 045d56ce11f1ae646bbe5d991ae34000, type: 3}
    - {fileID: 21300000, guid: 79ac19e7c46ba284fa1489a6611c3848, type: 3}
    - {fileID: 21300000, guid: 907452b0691a4654d813c4a25c23cb57, type: 3}
    - {fileID: 21300000, guid: 62ac46431aeb10c45aeb6fd1a9a058df, type: 3}
    - {fileID: 21300000, guid: ac33068b5e8cad140b5b06d932d8f7c0, type: 3}
    - {fileID: 21300000, guid: 5b4e2814cd86de040b5f3d205138ec4e, type: 3}
    - {fileID: 21300000, guid: 7fda473c681ca7545adb388a6b90c5c8, type: 3}
    - {fileID: 21300000, guid: bf24f7d25015dec488d995d4d02073a8, type: 3}
    - {fileID: 21300000, guid: 0abafb6c246fdab4093876b605e1826f, type: 3}
    - {fileID: 21300000, guid: 9d71851ed99dd514094f55b038723d07, type: 3}
    - {fileID: 21300000, guid: b5bc541c7d3c7f74785f3d8426258027, type: 3}
    - {fileID: 21300000, guid: 64f3a7b64a017444583e7fbc8b9709bc, type: 3}
    - {fileID: 21300000, guid: 3df2036a8aeb58e4280d0dd116b24fc9, type: 3}
    - {fileID: 21300000, guid: 20f920717493e4349a8d89b43fcea2ab, type: 3}
    - {fileID: 21300000, guid: b2228173c42bc404ca8169814a0e3292, type: 3}
    - {fileID: 21300000, guid: ced925c7de2d9314bae6b2f1448060a7, type: 3}
    - {fileID: 21300000, guid: 932f9f43c37177a49b652f69821159e6, type: 3}
    - {fileID: 21300000, guid: cee827d88e755d84c92a3404ebe31a3b, type: 3}
    - {fileID: 21300000, guid: e4f127f3a99f3504196e7cea13b96aa6, type: 3}
    - {fileID: 21300000, guid: 946023063c561a74baede5083f1aa1ac, type: 3}
    - {fileID: 21300000, guid: e6fe6511779d50148a1877b6aebc39fa, type: 3}
    - {fileID: 21300000, guid: 0bf8667a6f9f8d34e9186cb03220b09e, type: 3}
    - {fileID: 21300000, guid: 79428e67fbc3b6245b5449ace4ae221e, type: 3}
    - {fileID: 21300000, guid: 9f5ea7abf1d2e0248b7e1ef333de07b9, type: 3}
    - {fileID: 21300000, guid: 6e0a56f6a12229a49b286bc29a0a4521, type: 3}
    - {fileID: 21300000, guid: ae95ab7b5ba469c458d9edc550024701, type: 3}
    - {fileID: 21300000, guid: 0a7b0ea84705d4b4e9cc550077ba5dc0, type: 3}
    - {fileID: 21300000, guid: 56aaa4443fdfea44dab2ad539acb15aa, type: 3}
    - {fileID: 21300000, guid: fece98f31a2704b46949603bd1802aa6, type: 3}
    - {fileID: 21300000, guid: db9da2600328c164a8baab2e7cefe8fd, type: 3}
    - {fileID: 21300000, guid: 86e5948ff22a7c94cb3a52573e88d601, type: 3}
    - {fileID: 21300000, guid: 86648d1ebf898cb44bdd35df5783e768, type: 3}
    - {fileID: 21300000, guid: 0990c7beffca34141bd4d4e4c95ffa1f, type: 3}
    - {fileID: 21300000, guid: 5375a55f504059f40b5fd2ff8e8ab145, type: 3}
    - {fileID: 21300000, guid: b2d0cd0a5b805284faabdb9a1f97622c, type: 3}
    - {fileID: 21300000, guid: b3a0622419dc4414bb16eb82a22039fd, type: 3}
    - {fileID: 21300000, guid: dc09a397561e1d04fb2d91f596af4a7b, type: 3}
    - {fileID: 21300000, guid: a32b78547b5d28a48a8bd9211e8262e6, type: 3}
    - {fileID: 21300000, guid: 8c6d6264a41ac374bb7f758749dcd7a5, type: 3}
    - {fileID: 21300000, guid: aca6cff6167b226438ed9ed6832c51f8, type: 3}
    - {fileID: 21300000, guid: 66637c21d925b2b4f9025abe4f44a7f5, type: 3}
    - {fileID: 21300000, guid: 8b3ef10d8edc6e64ba4cf41b245cdde6, type: 3}
  m_AnimationClipSettings:
    serializedVersion: 2
    m_AdditiveReferencePoseClip: {fileID: 0}
    m_AdditiveReferencePoseTime: 0
    m_StartTime: 0
    m_StopTime: 2.3999999
    m_OrientationOffsetY: 0
    m_Level: 0
    m_CycleOffset: 0
    m_HasAdditiveReferencePose: 0
    m_LoopTime: 0
    m_LoopBlend: 0
    m_LoopBlendOrientation: 0
    m_LoopBlendPositionY: 0
    m_LoopBlendPositionXZ: 0
    m_KeepOriginalOrientation: 0
    m_KeepOriginalPositionY: 1
    m_KeepOriginalPositionXZ: 0
    m_HeightFromFeet: 0
    m_Mirror: 0
  m_EditorCurves: []
  m_EulerEditorCurves: []
  m_HasGenericRootTransform: 0
  m_HasMotionFloatCurves: 0
  m_GenerateMotionCurves: 0
  m_Events: []
