%YAML 1.1
%TAG !u! tag:unity3d.com,2011:
--- !u!114 &11400000
MonoBehaviour:
  m_ObjectHideFlags: 0
  m_PrefabParentObject: {fileID: 0}
  m_PrefabInternal: {fileID: 0}
  m_GameObject: {fileID: 0}
  m_Enabled: 1
  m_EditorHideFlags: 0
  m_Script: {fileID: 11500000, guid: a6b194f808b1af6499c93410e504af42, type: 3}
  m_Name: Blue-Electro-Mecha_Atlas
  m_EditorClassIdentifier: 
  atlasFile: {fileID: 4900000, guid: 550e83d9b983f5b43bc4af56979411b1, type: 3}
  materials:
  - {fileID: 2100000, guid: f48338a6fb7a760408b1ab5e862b5db0, type: 2}
  - {fileID: 2100000, guid: ed40259453ec03f40a7e4140b4118670, type: 2}
